…
We can check the data structure creates with either the `str(dvst)` command or by
typing `dvst`:


~~~
dvst
~~~
{: .language-r}



~~~
# A tibble: 59,140 x 16
   start   end `total SNPs` `total Bases` depth `unique SNPs` dhSNPs
   <dbl> <dbl>        <dbl>         <dbl> <dbl>         <dbl>  <dbl>
 1 55001 56000            0          1894  3.41             0      0
 2 56001 57000            5          6683  6.68             2      2
 3 57001 58000            1          9063  9.06             1      0
 4 58001 59000            7         10256 10.3              3      2
 5 59001 60000            4          8057  8.06             4      0
 6 60001 61000            6          7051  7.05             2      1
 7 61001 62000            7          6950  6.95             2      1
 8 62001 63000            1          8834  8.83             1      0
 9 63001 64000            1          9629  9.63             1      0
10 64001 65000            3          7999  8                1      1
# … with 59,130 more rows, and 9 more variables: reference Bases <dbl>,
#   Theta <dbl>, Pi <dbl>, Heterozygosity <dbl>, %GC <dbl>,
#   Recombination <dbl>, Divergence <dbl>, Constraint <dbl>, SNPs <dbl>
…
### `x %in% y` operator

If you are looking for multiple values within a certain column, use the `x %in% y` 
operator. This will select every row where `x` is one of the values in `y`:


~~~
filter(dvst, `total SNPs` %in% c(0,1,2))
~~~
{: .language-r}



~~~
# A tibble: 12,446 x 16
   start   end `total SNPs` `total Bases` depth `unique SNPs` dhSNPs
   <dbl> <dbl>        <dbl>         <dbl> <dbl>         <dbl>  <dbl>
 1 55001 56000            0          1894  3.41             0      0
 2 57001 58000            1          9063  9.06             1      0
 3 62001 63000            1          8834  8.83             1      0
 4 63001 64000            1          9629  9.63             1      0
 5 65001 66000            0          8376  8.38             0      0
 6 66001 67000            2          8431  8.43             2      0
 7 68001 69000            1          5381  5.38             1      0
 8 72001 73000            1          5276  5.28             1      0
 9 73001 74000            1          6648  6.65             1      0
10 80001 81000            1          6230  6.23             1      0
# … with 12,436 more rows, and 9 more variables: reference Bases <dbl>,
#   Theta <dbl>, Pi <dbl>, Heterozygosity <dbl>, %GC <dbl>,
#   Recombination <dbl>, Divergence <dbl>, Constraint <dbl>, SNPs <dbl>
…
We'll call it `cent` and make it logical (with TRUE/FALSE values):


~~~
mutate(dvst, cent = start >= 25800000 & end <= 29700000)
~~~
{: .language-r}



~~~
# A tibble: 59,140 x 17
   start   end `total SNPs` `total Bases` depth `unique SNPs` dhSNPs
   <dbl> <dbl>        <dbl>         <dbl> <dbl>         <dbl>  <dbl>
 1 55001 56000            0          1894  3.41             0      0
 2 56001 57000            5          6683  6.68             2      2
 3 57001 58000            1          9063  9.06             1      0
 4 58001 59000            7         10256 10.3              3      2
 5 59001 60000            4          8057  8.06             4      0
 6 60001 61000            6          7051  7.05             2      1
 7 61001 62000            7          6950  6.95             2      1
 8 62001 63000            1          8834  8.83             1      0
 9 63001 64000            1          9629  9.63             1      0
10 64001 65000            3          7999  8                1      1
# … with 59,130 more rows, and 10 more variables: reference Bases <dbl>,
#   Theta <dbl>, Pi <dbl>, Heterozygosity <dbl>, %GC <dbl>,
#   Recombination <dbl>, Divergence <dbl>, Constraint <dbl>, SNPs <dbl>,
#   cent <lgl>
~~~
{: .output}



~~~
dvst
~~~
{: .language-r}



~~~
# A tibble: 59,140 x 16
   start   end `total SNPs` `total Bases` depth `unique SNPs` dhSNPs
   <dbl> <dbl>        <dbl>         <dbl> <dbl>         <dbl>  <dbl>
 1 55001 56000            0          1894  3.41             0      0
 2 56001 57000            5          6683  6.68             2      2
 3 57001 58000            1          9063  9.06             1      0
 4 58001 59000            7         10256 10.3              3      2
 5 59001 60000            4          8057  8.06             4      0
 6 60001 61000            6          7051  7.05             2      1
 7 61001 62000            7          6950  6.95             2      1
 8 62001 63000            1          8834  8.83             1      0
 9 63001 64000            1          9629  9.63             1      0
10 64001 65000            3          7999  8                1      1
# … with 59,130 more rows, and 9 more variables: reference Bases <dbl>,
#   Theta <dbl>, Pi <dbl>, Heterozygosity <dbl>, %GC <dbl>,
#   Recombination <dbl>, Divergence <dbl>, Constraint <dbl>, SNPs <dbl>
…
In the dataset we are using, the diversity estimate Pi is measured per sampling 
window (1kb) and scaled up by 10x (see supplementary Text S1 for more details). 
It would be useful to have this scaled as per basepair nucleotide diversity 
(so as to make the scale more intuitive).


~~~
mutate(dvst, diversity = Pi / (10*1000)) # rescale, removing 10x and making per bp
~~~
{: .language-r}



~~~
# A tibble: 59,140 x 17
   start   end `total SNPs` `total Bases` depth `unique SNPs` dhSNPs
   <dbl> <dbl>        <dbl>         <dbl> <dbl>         <dbl>  <dbl>
 1 55001 56000            0          1894  3.41             0      0
 2 56001 57000            5          6683  6.68             2      2
 3 57001 58000            1          9063  9.06             1      0
 4 58001 59000            7         10256 10.3              3      2
 5 59001 60000            4          8057  8.06             4      0
 6 60001 61000            6          7051  7.05             2      1
 7 61001 62000            7          6950  6.95             2      1
 8 62001 63000            1          8834  8.83             1      0
 9 63001 64000            1          9629  9.63             1      0
10 64001 65000            3          7999  8                1      1
# … with 59,130 more rows, and 10 more variables: reference Bases <dbl>,
#   Theta <dbl>, Pi <dbl>, Heterozygosity <dbl>, %GC <dbl>,
#   Recombination <dbl>, Divergence <dbl>, Constraint <dbl>, SNPs <dbl>,
#   diversity <dbl>
…
If you only want to keep the new variables, use `transmute()`:


~~~
transmute(dvst,
  diversity = Pi / (10*1000), 
  cent = start >= 25800000 & end <= 29700000
)
~~~
{: .language-r}



~~~
# A tibble: 59,140 x 2
   diversity cent 
       <dbl> <lgl>
 1  0        FALSE
 2  0.00104  FALSE
 3  0.000199 FALSE
 4  0.000956 FALSE
 5  0.000851 FALSE
 6  0.000912 FALSE
 7  0.000806 FALSE
 8  0.000206 FALSE
 9  0.000188 FALSE
10  0.000541 FALSE
# … with 59,130 more rows
…
~~~
arrange(dvst, cent, `%GC`)
~~~
{: .language-r}



~~~
# A tibble: 59,140 x 18
      start      end `total SNPs` `total Bases` depth `unique SNPs` dhSNPs
      <dbl>    <dbl>        <dbl>         <dbl> <dbl>         <dbl>  <dbl>
 1 43448001 43449000            5           690  2.66             5      0
 2 14930001 14931000           19          3620  4.57             7      1
 3 37777001 37778000            3           615  1.12             3      0
 4 54885001 54886000            1          2298  3.69             1      0
 5 54888001 54889000           15          3823  3.87            11      1
 6 41823001 41824000           15          6950  6.95            10      4
 7 50530001 50531000           10          7293  7.29             2      2
 8 39612001 39613000           13          8254  8.25             5      3
 9 55012001 55013000            7          7028  7.03             7      0
10 22058001 22059000            4           281  1.2              4      0
# … with 59,130 more rows, and 11 more variables: reference Bases <dbl>,
#   Theta <dbl>, Pi <dbl>, Heterozygosity <dbl>, %GC <dbl>,
#   Recombination <dbl>, Divergence <dbl>, Constraint <dbl>, SNPs <dbl>,
#   diversity <dbl>, cent <lgl>
~~~
{: .output}

Use `desc()` to re-order by a column in descending order:


~~~
arrange(dvst, desc(cent), `%GC`)
~~~
{: .language-r}



~~~
# A tibble: 59,140 x 18
      start      end `total SNPs` `total Bases` depth `unique SNPs` dhSNPs
      <dbl>    <dbl>        <dbl>         <dbl> <dbl>         <dbl>  <dbl>
 1 25869001 25870000           10          7292  7.29             6      2
 2 29318001 29319000            2          6192  6.19             2      0
 3 29372001 29373000            5          7422  7.42             3      2
 4 26174001 26175000            1          7816  7.82             1      0
 5 26182001 26183000            2          6630  6.63             1      1
 6 25924001 25925000           30          7127  7.13            15      8
 7 26155001 26156000            0          9449  9.45             0      0
 8 25926001 25927000           21          8197  8.2             13      6
 9 29519001 29520000           15          8135  8.14            13      2
10 25901001 25902000            9          9126  9.13             5      2
# … with 59,130 more rows, and 11 more variables: reference Bases <dbl>,
#   Theta <dbl>, Pi <dbl>, Heterozygosity <dbl>, %GC <dbl>,
#   Recombination <dbl>, Divergence <dbl>, Constraint <dbl>, SNPs <dbl>,
#   diversity <dbl>, cent <lgl>
…
`select()` is not terribly useful with our data because they only have a few 
variables, but you can still get the general idea:


~~~
# Select columns by name
select(dvst, start, end, Divergence)
~~~
{: .language-r}



~~~
# A tibble: 59,140 x 3
   start   end Divergence
   <dbl> <dbl>      <dbl>
 1 55001 56000    0.00301
 2 56001 57000    0.0180 
 3 57001 58000    0.00701
 4 58001 59000    0.0120 
 5 59001 60000    0.0240 
 6 60001 61000    0.0160 
 7 61001 62000    0.0120 
 8 62001 63000    0.0150 
 9 63001 64000    0.00901
10 64001 65000    0.00701
# … with 59,130 more rows
~~~
{: .output}



~~~
# Select all columns between depth and Pi (inclusive)
select(dvst, depth:Pi)
~~~
{: .language-r}



~~~
# A tibble: 59,140 x 6
   depth `unique SNPs` dhSNPs `reference Bases` Theta    Pi
   <dbl>         <dbl>  <dbl>             <dbl> <dbl> <dbl>
 1  3.41             0      0               556  0     0   
 2  6.68             2      2              1000  8.01 10.4 
 3  9.06             1      0              1000  3.51  1.99
 4 10.3              3      2              1000  9.93  9.56
 5  8.06             4      0              1000 12.9   8.51
 6  7.05             2      1              1000  7.82  9.12
 7  6.95             2      1              1000  8.60  8.06
 8  8.83             1      0              1000  4.01  2.06
 9  9.63             1      0              1000  3.37  1.88
10  8                1      1              1000  4.16  5.41
# … with 59,130 more rows
~~~
{: .output}



~~~
# Select all columns except those from start to percent.GC (inclusive)
select(dvst, -(start:`%GC`))
~~~
{: .language-r}



~~~
# A tibble: 59,140 x 6
   Recombination Divergence Constraint  SNPs diversity cent 
           <dbl>      <dbl>      <dbl> <dbl>     <dbl> <lgl>
 1       0.00960    0.00301          0     0  0        FALSE
 2       0.00960    0.0180           0     0  0.00104  FALSE
 3       0.00960    0.00701          0     0  0.000199 FALSE
 4       0.00960    0.0120           0     0  0.000956 FALSE
 5       0.00960    0.0240           0     0  0.000851 FALSE
 6       0.00960    0.0160           0     0  0.000912 FALSE
 7       0.00960    0.0120           0     0  0.000806 FALSE
 8       0.00960    0.0150           0     0  0.000206 FALSE
 9       0.00960    0.00901         58     1  0.000188 FALSE
10       0.00958    0.00701          0     1  0.000541 FALSE
# … with 59,130 more rows
…
Another option is to use `select()` in conjunction with the `everything()` helper. 
This is useful if you have a handful of variables you'd like to move to the start 
of the data frame:


~~~
select(dvst, cent, everything())
~~~
{: .language-r}



~~~
# A tibble: 59,140 x 18
   cent  start   end total.SNPs total.Bases depth unique.SNPs dhSNPs
   <lgl> <dbl> <dbl>      <dbl>       <dbl> <dbl>       <dbl>  <dbl>
 1 FALSE 55001 56000          0        1894  3.41           0      0
 2 FALSE 56001 57000          5        6683  6.68           2      2
 3 FALSE 57001 58000          1        9063  9.06           1      0
 4 FALSE 58001 59000          7       10256 10.3            3      2
 5 FALSE 59001 60000          4        8057  8.06           4      0
 6 FALSE 60001 61000          6        7051  7.05           2      1
 7 FALSE 61001 62000          7        6950  6.95           2      1
 8 FALSE 62001 63000          1        8834  8.83           1      0
 9 FALSE 63001 64000          1        9629  9.63           1      0
10 FALSE 64001 65000          3        7999  8              1      1
# … with 59,130 more rows, and 10 more variables: reference.Bases <dbl>,
#   Theta <dbl>, Pi <dbl>, Heterozygosity <dbl>, percent.GC <dbl>,
#   Recombination <dbl>, Divergence <dbl>, Constraint <dbl>, SNPs <dbl>,
#   diversity <dbl>
…
> `income` spread across the column names, and
> `count` stored in the cell values.
> 
> To tidy it we use `pivot_longer()`:
>
> 
> ~~~
> relig_income %>% pivot_longer(-religion, names_to = "income", values_to = "count")
> ~~~
> {: .language-r}
> 
> 
> 
> ~~~
> # A tibble: 180 x 3
>    religion income             count
>    <chr>    <chr>              <dbl>
>  1 Agnostic <$10k                 27
>  2 Agnostic $10-20k               34
>  3 Agnostic $20-30k               60
>  4 Agnostic $30-40k               81
>  5 Agnostic $40-50k               76
>  6 Agnostic $50-75k              137
>  7 Agnostic $75-100k             122
>  8 Agnostic $100-150k            109
>  9 Agnostic >150k                 84
> 10 Agnostic Don't know/refused    96
> # … with 170 more rows
…
